<svg xmlns="http://www.w3.org/2000/svg" width="70" height="80" fill="none" viewBox="0 0 70 80">
    <path fill="#fff" d="M45.3 16V5.9c0-3.2-2.6-5.9-5.9-5.9H5.9C2.6 0 0 2.6 0 5.9v68.3C0 77.4 2.6 80 5.9 80h33.6c3.2 0 5.9-2.6 5.9-5.9V62.7h24V16H45.3zm-2.6 48v10.1c0 1.8-1.4 3.2-3.2 3.2H5.9c-1.8 0-3.2-1.4-3.2-3.2V5.9c0-1.8 1.4-3.2 3.2-3.2h8.9v.2c0 .7.6 1.3 1.3 1.3h14c.7 0 1.3-.6 1.3-1.3v-.2h8.1c1.8 0 3.2 1.4 3.2 3.2V16h-24v46.7H24V72l12.4-9.3h6.2V64h.1zm24-4H35.6l-8.9 6.7V60h-5.3V18.7h45.3V60z"/>
    <path fill="#EB0045" d="M28 28h13.3c.7 0 1.3-.6 1.3-1.3 0-.7-.6-1.3-1.3-1.3H28c-.7 0-1.3.6-1.3 1.3 0 .7.6 1.3 1.3 1.3zM59.5 52H46.1c-.7 0-1.3.6-1.3 1.3 0 .7.6 1.3 1.3 1.3h13.3c.7 0 1.3-.6 1.3-1.3.1-.7-.5-1.3-1.2-1.3zM26.7 33.3c0 .7.6 1.3 1.3 1.3h32c.7 0 1.3-.6 1.3-1.3 0-.7-.6-1.3-1.3-1.3H28c-.7 0-1.3.6-1.3 1.3zM60 38.7H28c-.7 0-1.3.6-1.3 1.3 0 .7.6 1.3 1.3 1.3h32c.7 0 1.3-.6 1.3-1.3 0-.7-.6-1.3-1.3-1.3zM60 45.3H28c-.7 0-1.3.6-1.3 1.3 0 .7.6 1.3 1.3 1.3h32c.7 0 1.3-.6 1.3-1.3 0-.7-.6-1.3-1.3-1.3z"/>
</svg>
