<svg xmlns="http://www.w3.org/2000/svg" width="24" height="24" fill="none" viewBox="0 0 24 24">
    <mask id="a" width="16" height="16" x="4" y="4" maskUnits="userSpaceOnUse">
        <path fill="#fff" d="M4 4h16v16H4z"/>
    </mask>
    <g mask="url(#a)">
        <path fill="#fff" fill-rule="evenodd" d="M11.756 6.002h-.412V6c-1.364.002-1.626.01-2.301.041-.714.033-1.101.152-1.36.253a2.271 2.271 0 0 0-.841.547c-.256.256-.415.5-.548.842-.1.258-.22.645-.252 1.359C6.007 9.813 6 10.044 6 11.999c0 1.954.007 2.186.042 2.957.033.714.152 1.101.252 1.359.133.342.292.585.548.841.256.256.5.415.842.548.258.1.645.22 1.359.252.771.035 1.003.043 2.957.043s2.186-.008 2.958-.043c.713-.033 1.101-.151 1.359-.252.341-.133.585-.291.84-.548.257-.256.416-.499.549-.84.1-.258.219-.645.252-1.359.035-.772.042-1.003.042-2.957 0-1.953-.007-2.185-.042-2.956-.033-.714-.152-1.101-.252-1.359a2.272 2.272 0 0 0-.548-.842 2.263 2.263 0 0 0-.841-.547c-.258-.1-.646-.22-1.36-.252-.771-.035-1.003-.042-2.957-.042h-.244zm3.272 2.092a.879.879 0 1 1 1.756 0 .879.879 0 0 1-1.756 0zM12 8.243a3.759 3.759 0 1 0 .001 7.517 3.759 3.759 0 0 0 0-7.517zM14.44 12a2.44 2.44 0 1 0-4.88 0 2.44 2.44 0 0 0 4.88 0z" clip-rule="evenodd"/>
    </g>
</svg>
