<svg xmlns="http://www.w3.org/2000/svg" width="70" height="80" fill="none" viewBox="0 0 70 80">
    <g clip-path="url(#a)">
        <path fill="#fff" d="M45.3 16V5.9c0-3.2-2.6-5.9-5.9-5.9H5.9C2.6 0 0 2.6 0 5.9v68.3C0 77.4 2.6 80 5.9 80h33.6c3.2 0 5.9-2.6 5.9-5.9V62.7h24V16H45.3zm-2.6 48v10.1c0 1.8-1.4 3.2-3.2 3.2H5.9c-1.8 0-3.2-1.4-3.2-3.2V5.9c0-1.8 1.4-3.2 3.2-3.2h8.9v.2c0 .7.6 1.3 1.3 1.3h14c.7 0 1.3-.6 1.3-1.3v-.2h8.1c1.8 0 3.2 1.4 3.2 3.2V16h-24v46.7H24V72l12.4-9.3h6.2V64h.1zm24-4H35.6l-8.9 6.7V60h-5.3V18.7h45.3V60z"/>
        <path fill="#EB0045" d="M44.501 55.4l-11.1-10c-2.2-2-3.8-4.6-4.5-7.4-.4-1.9-.3-3.1-.3-3.6.5-5.4 4.4-9.3 9.2-9.3 2.5 0 4.9 1.1 6.6 3 1.7-1.9 4.2-3 6.7-3 4.9 0 8.7 3.9 9.3 9.3.1.4.2 1.7-.3 3.6-.7 2.8-2.2 5.4-4.5 7.4l-11.1 10zm-6.5-27.6c-3.4 0-6.2 2.9-6.6 6.9v.1s-.1.9.2 2.5c.5 2.3 1.8 4.4 3.6 6.1l9.3 8.4 9.4-8.4c1.8-1.7 3.1-3.8 3.6-6.1.4-1.6.2-2.5.2-2.6v-.1c-.4-4-3.1-6.9-6.6-6.9-2.3 0-4.4 1.2-5.6 3.2l-1.2 2-1.2-2c-.9-1.9-2.9-3.1-5.1-3.1z"/>
    </g>
    <defs>
        <clipPath id="a">
            <path fill="#fff" d="M0 0h69.3v80H0z"/>
        </clipPath>
    </defs>
</svg>
